Paw Hansen - Using simulation for design analysis part II: Iterating over multiple values
…
Using the simulations to study the proporties of different design features

Now we are ready to interrogate our design.

Let us use our simulations to calculate the power associated with different numbers of subjects and different treatment effects sizes.

power_rs <- 
  dat |> 
  group_by(n_subjects, treat_effect) |> 
  summarize(power = mean(p.value <= 0.05))

power_rs 

# A tibble: 55 × 3
# Groups:   n_subjects [5]
   n_subjects treat_effect power
        <dbl>        <dbl> <dbl>
 1         25            0 0.521
 2         25            1 0.524
 3         25            2 0.533
 4         25            3 0.527
 5         25            4 0.539
 6         25            5 0.536
 7         25            6 0.551
 8         25            7 0.561
 9         25            8 0.58 
10         25            9 0.573
# ℹ 45 more rows
…
Figure 1: Statistical power for different potential designs, varying both the treatment effect and the number of participating subjects.

We could also compute the standard error of the treatment effects to analyze its variation:

rs <-
  dat |> 
  filter(term == "conditionTreated") |> 
  group_by(n_subjects, treat_effect) |> 
  summarize(error = mean(std.error))

rs

# A tibble: 55 × 3
# Groups:   n_subjects [5]
   n_subjects treat_effect error
        <dbl>        <dbl> <dbl>
 1         25            0  8.12
 2         25            1  8.07
 3         25            2  8.01
 4         25            3  8.09
 5         25            4  8.11
 6         25            5  8.01
 7         25            6  8.04
 8         25            7  8.10
 9         25            8  8.16
10         25            9  8.16
# ℹ 45 more rows
…
