Paw Hansen - The policy evaluator’s toolbox: Presenting your next instrumental variable analysis
…
iv_example_data 

# A tibble: 10,000 × 5
   person smoker  health province      tax
    <int>  <int>   <dbl> <chr>       <dbl>
 1      1      0  1.11   Alberta       0.3
 2      2      1 -0.0831 Alberta       0.3
 3      3      1 -0.0363 Alberta       0.3
 4      4      0  2.48   Alberta       0.3
 5      5      0  0.617  Nova Scotia   0.5
 6      6      0  0.748  Alberta       0.3
 7      7      0  0.499  Alberta       0.3
 8      8      0  1.05   Nova Scotia   0.5
 9      9      1  0.113  Alberta       0.3
10     10      1 -0.0105 Alberta       0.3
# ℹ 9,990 more rows
…
